<?xml version="1.0" encoding="utf-8"?>
<!-- Generator: Adobe Illustrator 18.1.0, SVG Export Plug-In . SVG Version: 6.00 Build 0)  -->
<svg version="1.1" id="Layer_1" xmlns="http://www.w3.org/2000/svg" xmlns:xlink="http://www.w3.org/1999/xlink" x="0px" y="0px"
	 width="595.3px" height="841.9px" viewBox="0 0 595.3 841.9" enable-background="new 0 0 595.3 841.9" xml:space="preserve">
<title>3</title>
<g id="Layer_2">
	<g id="Layer_9">
		<path fill="#FF2787" d="M441.7,267.3H153.6C68.7,267.3,0,336.1,0,420.9s68.8,153.6,153.6,153.6h288.1
			c84.8,0,153.6-68.8,153.6-153.6S526.5,267.3,441.7,267.3z M441.7,555.3H153.6c-74.2,1.8-135.9-56.9-137.6-131.2
			s56.9-135.9,131.2-137.6c2.2-0.1,4.3-0.1,6.5,0h288.1c74.2,1.8,132.9,63.4,131.2,137.6C571.1,495.9,513.4,553.6,441.7,555.3z
			 M152.5,315.3c-58.3-0.1-105.7,47.1-105.8,105.4c-0.1,58.3,47.1,105.7,105.4,105.8c58.3,0.1,105.7-47.1,105.8-105.4
			c0-0.1,0-0.1,0-0.2c-0.1-58.3-47.4-105.6-105.8-105.6H152.5z M484.6,389.3l-31.3,31.3l31.3,31.3c3.8,3.8,3.8,9.8,0,13.6
			c-3.8,3.8-9.8,3.8-13.6,0l-31.3-31.3l-31.3,31.3c-3.8,3.8-9.8,3.8-13.6,0c-3.8-3.8-3.8-9.8,0-13.6l31.3-31.3l-31.3-31.3
			c-3.8-3.8-3.8-9.8,0-13.6c3.8-3.8,9.8-3.8,13.6,0l31.3,31.3l31.3-31.3c3.8-3.8,9.8-3.8,13.6,0
			C488.4,379.5,488.4,385.6,484.6,389.3z"/>
	</g>
</g>
</svg>
