<?xml version="1.0" encoding="utf-8"?>
<!-- Generator: Adobe Illustrator 18.1.0, SVG Export Plug-In . SVG Version: 6.00 Build 0)  -->
<svg version="1.1" id="Layer_1" xmlns="http://www.w3.org/2000/svg" xmlns:xlink="http://www.w3.org/1999/xlink" x="0px" y="0px"
	 width="595.3px" height="841.9px" viewBox="0 0 595.3 841.9" enable-background="new 0 0 595.3 841.9" xml:space="preserve">
<title>Asset 53</title>
<g id="Layer_2">
	<g id="Layer_9">
		<path fill="#FF2787" d="M576.5,544.7L360.2,214.9c-22.8-34.8-69.6-44.5-104.4-21.7c-8.6,5.7-16,13-21.7,21.7L19,544.7
			C-3.7,579.6,6.1,626.3,41,649c12.2,8,26.5,12.2,41,12.2h432.4c41.6-0.6,74.9-34.9,74.2-76.5C588.5,570.5,584.3,556.6,576.5,544.7z
			 M514.5,623.7H82.1c-20.7-0.3-37.3-17.4-36.9-38.2c0.1-7.2,2.3-14.2,6.3-20.2l214.8-329.8c11.3-17.4,34.5-22.4,51.9-11.1
			c4.4,2.9,8.2,6.6,11.1,11.1l215.6,329.8c11.5,17.3,6.9,40.6-10.4,52.1C528.5,621.3,521.6,623.5,514.5,623.7z M316.4,360v131.7
			c0,10.4-8.4,18.8-18.8,18.8c-10.4,0-18.8-8.4-18.8-18.8V360c0-10.4,8.4-18.8,18.8-18.8C308,341.2,316.4,349.6,316.4,360
			C316.4,360,316.4,360,316.4,360z M316.4,548.3c0,10.4-8.4,18.8-18.8,18.8s-18.8-8.4-18.8-18.8c0-10.4,8.4-18.8,18.8-18.8
			S316.4,537.9,316.4,548.3L316.4,548.3z"/>
		<path fill="#FF2787" d="M514.5,667.6H82.1c-45.2,0-81.8-36.7-81.8-81.9c0-15.9,4.6-31.4,13.3-44.7l215.6-329.8
			c15.1-23.1,40.8-37.1,68.4-37l0,0c27.6,0,53.4,13.9,68.4,37l215.6,330.1l0,0c24.6,37.9,13.8,88.6-24.1,113.2
			C544.7,662.8,529.8,667.4,514.5,667.6z M297.6,187.1c-23.2,0-44.9,11.7-57.6,31.1L24.2,548.3c-20.7,31.9-11.7,74.6,20.3,95.4
			c11.1,7.2,24.1,11.1,37.4,11.1h432.7c38.1-0.1,68.9-31.1,68.8-69.1c0-13.3-3.9-26.2-11.1-37.4l0,0L355.3,218.2
			C342.6,198.8,320.9,187.1,297.6,187.1z M514.5,630.1H82.1c-24.3,0-44-19.7-44-44c0-8.6,2.5-17,7.2-24.2l215.6-330.1
			c13.2-20.4,40.5-26.2,60.8-13c5.2,3.4,9.6,7.8,13,13l215.6,330.1c13.4,20.3,7.7,47.6-12.5,60.9
			C530.8,627.4,522.8,629.9,514.5,630.1z M297.6,225.7c-10.4,0.1-20.1,5.4-25.7,14.1l-216.1,329c-9.5,14.3-5.6,33.6,8.7,43.2
			c5.1,3.4,11,5.2,17,5.2h433c17.2-0.1,31-14.1,30.9-31.3c0-6.1-1.8-12-5.2-17L323.9,238.8C317.9,230.3,308,225.4,297.6,225.7z
			 M297.6,574.5c-14.2,0-25.7-11.5-25.7-25.7s11.5-25.7,25.7-25.7s25.7,11.5,25.7,25.7c-0.6,13.8-11.9,24.7-25.7,24.7V574.5z
			 M297.6,537c-6.8,0-12.3,5.5-12.3,12.3c0,6.8,5.5,12.3,12.3,12.3s12.3-5.5,12.3-12.3v0c0.6-6.8-4.5-12.8-11.3-13.3
			c-0.4,0-0.7,0-1.1,0V537z M297.6,518.2c-14.2,0-25.7-11.5-25.7-25.7V360c0-14.2,11.5-25.7,25.7-25.7s25.7,11.5,25.7,25.7v131.7
			c-0.3,14-11.7,25.2-25.7,25.2V518.2z M297.6,348.7c-6.8,0-12.3,5.5-12.3,12.3v131.7c0,7.1,5.8,12.9,12.9,12.9
			c7.1,0,12.9-5.8,12.9-12.9V360c0-6.8-5.5-12.4-12.3-12.4c-0.4,0-0.7,0-1.1,0V348.7z"/>
	</g>
</g>
</svg>
